%YAML 1.1
%TAG !u! tag:unity3d.com,2011:
--- !u!21 &2100000
Material:
  serializedVersion: 6
  m_ObjectHideFlags: 0
  m_CorrespondingSourceObject: {fileID: 0}
  m_PrefabInstance: {fileID: 0}
  m_PrefabAsset: {fileID: 0}
  m_Name: Grass SOLID
  m_Shader: {fileID: 4800000, guid: e205ec5a2dab342e78812532c2f67fd5, type: 3}
  m_ShaderKeywords: BACK_SOLID_ON COLR_1_2 FRONT_SOLID_ON LEFT_SOLID_ON LIGHTMAP_COLR_ON
    RIGHT_SOLID_ON
  m_LightmapFlags: 5
  m_EnableInstancingVariants: 0
  m_DoubleSidedGI: 0
  m_CustomRenderQueue: 2000
  stringTagMap: {}
  disabledShaderPasses: []
  m_SavedProperties:
    serializedVersion: 3
    m_TexEnvs:
    - _LayoutTexture:
        m_Texture: {fileID: 0}
        m_Scale: {x: 1, y: 1}
        m_Offset: {x: 0, y: 0}
    - _MainTex:
        m_Texture: {fileID: 0}
        m_Scale: {x: 1, y: 1}
        m_Offset: {x: 0, y: 0}
    m_Floats:
    - _AmbientPower: 0.04
    - _DistanceNear: 50
    - _FogAnimationFreq: 0.1
    - _FogAnimationHeight: 0.1
    - _FogDensity: 1
    - _FogEnd: 50
    - _FogHeight: 126.5
    - _FogStart: 0
    - _FogYStartPos: -66.6
    - _GradientHeight: 10
    - _GradientYStartPos: 0
    - _LayoutTexturePower: 0
    - _LightmapPower: 1.15
    - _MaxY: 50
    - _MinY: -50
    - _RimPower: 0.15
    - _ShadowPower: 1
    - _UseFogDistance: 0
    - _UseLightMap: 1
    m_Colors:
    - _AmbientColor: {r: 1, g: 0.784, b: 0, a: 0}
    - _BackBottomColor: {r: 0.6313726, g: 0.5921569, b: 0.5568628, a: 0}
    - _BackColor: {r: 0.63235295, g: 0.59336, b: 0.5579585, a: 0}
    - _BackTopColor: {r: 0.6313726, g: 0.5921569, b: 0.5568628, a: 0}
    - _BaseScale: {r: 1, g: 1, b: 1, a: 0}
    - _BottomColor: {r: 0.17993079, g: 0.4705882, b: 0.20598973, a: 0}
    - _Color: {r: 1, g: 1, b: 1, a: 1}
    - _ColorFar: {r: 0.89705896, g: 0, b: 1, a: 1}
    - _ColorNear: {r: 0, g: 1, b: 1, a: 1}
    - _FogColor: {r: 1, g: 1, b: 1, a: 1}
    - _FrontBottomColor: {r: 0.21568629, g: 0.68235296, b: 0.15294118, a: 0}
    - _FrontColor: {r: 0.21721457, g: 0.6838235, b: 0.1005623, a: 0}
    - _FrontTopColor: {r: 0.21568629, g: 0.68235296, b: 0.15294118, a: 0}
    - _LeftBottomColor: {r: 0.8000001, g: 0.8078432, b: 0.21176472, a: 0}
    - _LeftColor: {r: 0.79897976, g: 0.8088235, b: 0.0951557, a: 0}
    - _LeftTopColor: {r: 0.8000001, g: 0.8078432, b: 0.21176472, a: 0}
    - _LightTint: {r: 1, g: 1, b: 1, a: 0}
    - _LightmapColor: {r: 0.118255585, g: 0.32352942, b: 0, a: 0}
    - _Point: {r: -38.3, g: 25.26, b: -4.15, a: 1}
    - _RightBottomColor: {r: 0.6745098, g: 0.68235296, b: 0.17254902, a: 0}
    - _RightColor: {r: 0.67591727, g: 0.6838235, b: 0.110618494, a: 0}
    - _RightTopColor: {r: 0.6745098, g: 0.68235296, b: 0.17254902, a: 0}
    - _RimColor: {r: 0, g: 1, b: 0, a: 0}
    - _TopColor: {r: 0.21366782, g: 0.5588235, b: 0.528, a: 0}
